…
For this exercise, we will be choosing two of the three tasks below.

But first, tasks 1 and 2 below ask you to modify a plot you made in a
previous milestone. The plot you choose should involve plotting across
at least three groups (whether by facetting, or using an aesthetic like
colour). Place this plot below (you’re allowed to modify the plot if
you’d like). If you don’t have such a plot, you’ll need to make one.
Place the code for the plot below.

``` r
cancer_sample
```

    ## # A tibble: 569 × 32
    ##          ID diagnosis radius_mean texture_mean perimeter_mean area_mean
    ##       <dbl> <chr>           <dbl>        <dbl>          <dbl>     <dbl>
    ##  1   842302 M                18.0         10.4          123.      1001 
    ##  2   842517 M                20.6         17.8          133.      1326 
    ##  3 84300903 M                19.7         21.2          130       1203 
    ##  4 84348301 M                11.4         20.4           77.6      386.
    ##  5 84358402 M                20.3         14.3          135.      1297 
    ##  6   843786 M                12.4         15.7           82.6      477.
    ##  7   844359 M                18.2         20.0          120.      1040 
    ##  8 84458202 M                13.7         20.8           90.2      578.
    ##  9   844981 M                13           21.8           87.5      520.
    ## 10 84501001 M                12.5         24.0           84.0      476.
    ## # … with 559 more rows, and 26 more variables: smoothness_mean <dbl>,
    ## #   compactness_mean <dbl>, concavity_mean <dbl>, concave_points_mean <dbl>,
    ## #   symmetry_mean <dbl>, fractal_dimension_mean <dbl>, radius_se <dbl>,
    ## #   texture_se <dbl>, perimeter_se <dbl>, area_se <dbl>, smoothness_se <dbl>,
    ## #   compactness_se <dbl>, concavity_se <dbl>, concave_points_se <dbl>,
    ## #   symmetry_se <dbl>, fractal_dimension_se <dbl>, radius_worst <dbl>,
    ## #   texture_worst <dbl>, perimeter_worst <dbl>, area_worst <dbl>, …
…
Now that we have a range of the the mean values, here, we group the
numerical values of the `area_mean` column in the `cancer_sample`
dataset regarding the above calculation.

``` r
categorized <- cancer_sample %>%
     select(diagnosis, area_mean) %>%
     mutate(area = case_when (area_mean < 460 ~  "low", 
                              area_mean < 970 ~  "medium", 
                              TRUE ~ "high"))
categorized
```

    ## # A tibble: 569 × 3
    ##    diagnosis area_mean area  
    ##    <chr>         <dbl> <chr> 
    ##  1 M             1001  high  
    ##  2 M             1326  high  
    ##  3 M             1203  high  
    ##  4 M              386. low   
    ##  5 M             1297  high  
    ##  6 M              477. medium
    ##  7 M             1040  high  
    ##  8 M              578. medium
    ##  9 M              520. medium
    ## 10 M              476. medium
    ## # … with 559 more rows
…
It should be noted that the `lm` function needs numeric `Y` values to
fit a model with. However, the values of the `diagnosis` column are
categorical. Hence, we use the following code which converts these
categorical values to 0 and 1, so that the model is fit successfully.

``` r
categorical_diagnosis <- as.numeric(factor(as.matrix(cancer_sample[, "diagnosis"]))) - 1
new_df <- cancer_sample
new_df[, "diagnosis"] <- categorical_diagnosis
new_df
```

    ## # A tibble: 569 × 32
    ##          ID diagnosis radius_mean texture_mean perimeter_mean area_mean
    ##       <dbl>     <dbl>       <dbl>        <dbl>          <dbl>     <dbl>
    ##  1   842302         1        18.0         10.4          123.      1001 
    ##  2   842517         1        20.6         17.8          133.      1326 
    ##  3 84300903         1        19.7         21.2          130       1203 
    ##  4 84348301         1        11.4         20.4           77.6      386.
    ##  5 84358402         1        20.3         14.3          135.      1297 
    ##  6   843786         1        12.4         15.7           82.6      477.
    ##  7   844359         1        18.2         20.0          120.      1040 
    ##  8 84458202         1        13.7         20.8           90.2      578.
    ##  9   844981         1        13           21.8           87.5      520.
    ## 10 84501001         1        12.5         24.0           84.0      476.
    ## # … with 559 more rows, and 26 more variables: smoothness_mean <dbl>,
    ## #   compactness_mean <dbl>, concavity_mean <dbl>, concave_points_mean <dbl>,
    ## #   symmetry_mean <dbl>, fractal_dimension_mean <dbl>, radius_se <dbl>,
    ## #   texture_se <dbl>, perimeter_se <dbl>, area_se <dbl>, smoothness_se <dbl>,
    ## #   compactness_se <dbl>, concavity_se <dbl>, concave_points_se <dbl>,
    ## #   symmetry_se <dbl>, fractal_dimension_se <dbl>, radius_worst <dbl>,
    ## #   texture_worst <dbl>, perimeter_worst <dbl>, area_worst <dbl>, …

Also, the `ID` column does not have anything to do with the
characteristics of the tumor! So, we drop this column.

``` r
cancer_sample_final <- (select(new_df, -c(ID)))
cancer_sample_final
```

    ## # A tibble: 569 × 31
    ##    diagnosis radius_mean texture_mean perimeter_mean area_mean smoothness_mean
    ##        <dbl>       <dbl>        <dbl>          <dbl>     <dbl>           <dbl>
    ##  1         1        18.0         10.4          123.      1001           0.118 
    ##  2         1        20.6         17.8          133.      1326           0.0847
    ##  3         1        19.7         21.2          130       1203           0.110 
    ##  4         1        11.4         20.4           77.6      386.          0.142 
    ##  5         1        20.3         14.3          135.      1297           0.100 
    ##  6         1        12.4         15.7           82.6      477.          0.128 
    ##  7         1        18.2         20.0          120.      1040           0.0946
    ##  8         1        13.7         20.8           90.2      578.          0.119 
    ##  9         1        13           21.8           87.5      520.          0.127 
    ## 10         1        12.5         24.0           84.0      476.          0.119 
    ## # … with 559 more rows, and 25 more variables: compactness_mean <dbl>,
    ## #   concavity_mean <dbl>, concave_points_mean <dbl>, symmetry_mean <dbl>,
    ## #   fractal_dimension_mean <dbl>, radius_se <dbl>, texture_se <dbl>,
    ## #   perimeter_se <dbl>, area_se <dbl>, smoothness_se <dbl>,
    ## #   compactness_se <dbl>, concavity_se <dbl>, concave_points_se <dbl>,
    ## #   symmetry_se <dbl>, fractal_dimension_se <dbl>, radius_worst <dbl>,
    ## #   texture_worst <dbl>, perimeter_worst <dbl>, area_worst <dbl>, …
…
``` r
cancer_sample_final2
```

    ## # A tibble: 569 × 31
    ##    diagnosis radius_mean texture_mean perimeter_mean area_mean smoothness_mean
    ##        <dbl>       <dbl>        <dbl>          <dbl>     <dbl>           <dbl>
    ##  1         1       0.521       0.0227          0.546     0.364           0.594
    ##  2         1       0.643       0.273           0.616     0.502           0.290
    ##  3         1       0.601       0.390           0.596     0.449           0.514
    ##  4         1       0.210       0.361           0.234     0.103           0.811
    ##  5         1       0.630       0.157           0.631     0.489           0.430
    ##  6         1       0.259       0.203           0.268     0.142           0.679
    ##  7         1       0.533       0.347           0.524     0.380           0.379
    ##  8         1       0.318       0.376           0.321     0.184           0.598
    ##  9         1       0.285       0.410           0.302     0.160           0.674
    ## 10         1       0.259       0.485           0.278     0.141           0.596
    ## # … with 559 more rows, and 25 more variables: compactness_mean <dbl>,
    ## #   concavity_mean <dbl>, concave_points_mean <dbl>, symmetry_mean <dbl>,
    ## #   fractal_dimension_mean <dbl>, radius_se <dbl>, texture_se <dbl>,
    ## #   perimeter_se <dbl>, area_se <dbl>, smoothness_se <dbl>,
    ## #   compactness_se <dbl>, concavity_se <dbl>, concave_points_se <dbl>,
    ## #   symmetry_se <dbl>, fractal_dimension_se <dbl>, radius_worst <dbl>,
    ## #   texture_worst <dbl>, perimeter_worst <dbl>, area_worst <dbl>, …
…
With the above code, we can see a tibble that contains the summary of
p-values for hypothesis tests, the goodness of fit measures, and other
useful information regarding our model which help us validate it. As
seen, the `glance` function returns a one-row tibble.

Using the `augment` function from the broom package to add columns to
the original data that was modeled.

``` r
augment(fitted_model)
```

    ## # A tibble: 569 × 37
    ##    diagnosis radius_mean texture_mean perimeter_mean area_mean smoothness_mean
    ##        <dbl>       <dbl>        <dbl>          <dbl>     <dbl>           <dbl>
    ##  1         1        18.0         10.4          123.      1001           0.118 
    ##  2         1        20.6         17.8          133.      1326           0.0847
    ##  3         1        19.7         21.2          130       1203           0.110 
    ##  4         1        11.4         20.4           77.6      386.          0.142 
    ##  5         1        20.3         14.3          135.      1297           0.100 
    ##  6         1        12.4         15.7           82.6      477.          0.128 
    ##  7         1        18.2         20.0          120.      1040           0.0946
    ##  8         1        13.7         20.8           90.2      578.          0.119 
    ##  9         1        13           21.8           87.5      520.          0.127 
    ## 10         1        12.5         24.0           84.0      476.          0.119 
    ## # … with 559 more rows, and 31 more variables: compactness_mean <dbl>,
    ## #   concavity_mean <dbl>, concave_points_mean <dbl>, symmetry_mean <dbl>,
    ## #   fractal_dimension_mean <dbl>, radius_se <dbl>, texture_se <dbl>,
    ## #   perimeter_se <dbl>, area_se <dbl>, smoothness_se <dbl>,
    ## #   compactness_se <dbl>, concavity_se <dbl>, concave_points_se <dbl>,
    ## #   symmetry_se <dbl>, fractal_dimension_se <dbl>, radius_worst <dbl>,
    ## #   texture_worst <dbl>, perimeter_worst <dbl>, area_worst <dbl>, …

``` r
augment(fitted_model2)
```

    ## # A tibble: 569 × 37
    ##    diagnosis radius_mean texture_mean perimeter_mean area_mean smoothness_mean
    ##        <dbl>       <dbl>        <dbl>          <dbl>     <dbl>           <dbl>
    ##  1         1       0.521       0.0227          0.546     0.364           0.594
    ##  2         1       0.643       0.273           0.616     0.502           0.290
    ##  3         1       0.601       0.390           0.596     0.449           0.514
    ##  4         1       0.210       0.361           0.234     0.103           0.811
    ##  5         1       0.630       0.157           0.631     0.489           0.430
    ##  6         1       0.259       0.203           0.268     0.142           0.679
    ##  7         1       0.533       0.347           0.524     0.380           0.379
    ##  8         1       0.318       0.376           0.321     0.184           0.598
    ##  9         1       0.285       0.410           0.302     0.160           0.674
    ## 10         1       0.259       0.485           0.278     0.141           0.596
    ## # … with 559 more rows, and 31 more variables: compactness_mean <dbl>,
    ## #   concavity_mean <dbl>, concave_points_mean <dbl>, symmetry_mean <dbl>,
    ## #   fractal_dimension_mean <dbl>, radius_se <dbl>, texture_se <dbl>,
    ## #   perimeter_se <dbl>, area_se <dbl>, smoothness_se <dbl>,
    ## #   compactness_se <dbl>, concavity_se <dbl>, concave_points_se <dbl>,
    ## #   symmetry_se <dbl>, fractal_dimension_se <dbl>, radius_worst <dbl>,
    ## #   texture_worst <dbl>, perimeter_worst <dbl>, area_worst <dbl>, …

With the above code, we can add columns such as the predictions of the
dependent variable using the model (`.fitted` column), residuals
(`.resid` column), and cluster assignments to the original data.

Using the `tidy` function from the broom package to construct a tibble
that summarizes the model’s statistical findings.

``` r
tidy(fitted_model)
```

    ## # A tibble: 31 × 5
    ##    term                 estimate std.error statistic    p.value
    ##    <chr>                   <dbl>     <dbl>     <dbl>      <dbl>
    ##  1 (Intercept)         -2.02      0.428      -4.72   0.00000296
    ##  2 radius_mean         -0.218     0.174      -1.26   0.210     
    ##  3 texture_mean         0.00455   0.00794     0.572  0.567     
    ##  4 perimeter_mean       0.0237    0.0251      0.946  0.345     
    ##  5 area_mean            0.000318  0.000525    0.605  0.545     
    ##  6 smoothness_mean      0.0847    2.02        0.0420 0.967     
    ##  7 compactness_mean    -4.22      1.33       -3.17   0.00163   
    ##  8 concavity_mean       1.40      1.05        1.34   0.182     
    ##  9 concave_points_mean  2.14      1.98        1.08   0.280     
    ## 10 symmetry_mean        0.103     0.743       0.138  0.890     
    ## # … with 21 more rows

``` r
tidy(fitted_model2)
```

    ## # A tibble: 31 × 5
    ##    term                estimate std.error statistic       p.value
    ##    <chr>                  <dbl>     <dbl>     <dbl>         <dbl>
    ##  1 (Intercept)         -0.969       0.164   -5.90   0.00000000643
    ##  2 radius_mean         -4.60        3.67    -1.26   0.210        
    ##  3 texture_mean         0.134       0.235    0.572  0.567        
    ##  4 perimeter_mean       3.44        3.63     0.946  0.345        
    ##  5 area_mean            0.749       1.24     0.605  0.545        
    ##  6 smoothness_mean      0.00938     0.223    0.0420 0.967        
    ##  7 compactness_mean    -1.38        0.435   -3.17   0.00163      
    ##  8 concavity_mean       0.597       0.446    1.34   0.182        
    ##  9 concave_points_mean  0.431       0.398    1.08   0.280        
    ## 10 symmetry_mean        0.0203      0.147    0.138  0.890        
    ## # … with 21 more rows
…
