…
## 1.2

*Research question 1, Summarizing:*

Let’s look at the data again.

``` r
cancer_sample
```

    ## # A tibble: 569 × 32
    ##          ID diagnosis radius_mean texture_mean perimeter_mean area_mean
    ##       <dbl> <chr>           <dbl>        <dbl>          <dbl>     <dbl>
    ##  1   842302 M                18.0         10.4          123.      1001 
    ##  2   842517 M                20.6         17.8          133.      1326 
    ##  3 84300903 M                19.7         21.2          130       1203 
    ##  4 84348301 M                11.4         20.4           77.6      386.
    ##  5 84358402 M                20.3         14.3          135.      1297 
    ##  6   843786 M                12.4         15.7           82.6      477.
    ##  7   844359 M                18.2         20.0          120.      1040 
    ##  8 84458202 M                13.7         20.8           90.2      578.
    ##  9   844981 M                13           21.8           87.5      520.
    ## 10 84501001 M                12.5         24.0           84.0      476.
    ## # … with 559 more rows, and 26 more variables: smoothness_mean <dbl>,
    ## #   compactness_mean <dbl>, concavity_mean <dbl>, concave_points_mean <dbl>,
    ## #   symmetry_mean <dbl>, fractal_dimension_mean <dbl>, radius_se <dbl>,
    ## #   texture_se <dbl>, perimeter_se <dbl>, area_se <dbl>, smoothness_se <dbl>,
    ## #   compactness_se <dbl>, concavity_se <dbl>, concave_points_se <dbl>,
    ## #   symmetry_se <dbl>, fractal_dimension_se <dbl>, radius_worst <dbl>,
    ## #   texture_worst <dbl>, perimeter_worst <dbl>, area_worst <dbl>, …
…
``` r
ncol(cancer_sample)
```

    ## [1] 32

The number of columns is more than 8. picking 8 columns:

``` r
cancer_sample %>%
      select(1:8)
```

    ## # A tibble: 569 × 8
    ##          ID diagnosis radius_mean texture_mean perimeter_mean area_mean
    ##       <dbl> <chr>           <dbl>        <dbl>          <dbl>     <dbl>
    ##  1   842302 M                18.0         10.4          123.      1001 
    ##  2   842517 M                20.6         17.8          133.      1326 
    ##  3 84300903 M                19.7         21.2          130       1203 
    ##  4 84348301 M                11.4         20.4           77.6      386.
    ##  5 84358402 M                20.3         14.3          135.      1297 
    ##  6   843786 M                12.4         15.7           82.6      477.
    ##  7   844359 M                18.2         20.0          120.      1040 
    ##  8 84458202 M                13.7         20.8           90.2      578.
    ##  9   844981 M                13           21.8           87.5      520.
    ## 10 84501001 M                12.5         24.0           84.0      476.
    ## # … with 559 more rows, and 2 more variables: smoothness_mean <dbl>,
    ## #   compactness_mean <dbl>
…
Before (tidy original dataset):

``` r
cancer_sample
```

    ## # A tibble: 569 × 32
    ##          ID diagnosis radius_mean texture_mean perimeter_mean area_mean
    ##       <dbl> <chr>           <dbl>        <dbl>          <dbl>     <dbl>
    ##  1   842302 M                18.0         10.4          123.      1001 
    ##  2   842517 M                20.6         17.8          133.      1326 
    ##  3 84300903 M                19.7         21.2          130       1203 
    ##  4 84348301 M                11.4         20.4           77.6      386.
    ##  5 84358402 M                20.3         14.3          135.      1297 
    ##  6   843786 M                12.4         15.7           82.6      477.
    ##  7   844359 M                18.2         20.0          120.      1040 
    ##  8 84458202 M                13.7         20.8           90.2      578.
    ##  9   844981 M                13           21.8           87.5      520.
    ## 10 84501001 M                12.5         24.0           84.0      476.
    ## # … with 559 more rows, and 26 more variables: smoothness_mean <dbl>,
    ## #   compactness_mean <dbl>, concavity_mean <dbl>, concave_points_mean <dbl>,
    ## #   symmetry_mean <dbl>, fractal_dimension_mean <dbl>, radius_se <dbl>,
    ## #   texture_se <dbl>, perimeter_se <dbl>, area_se <dbl>, smoothness_se <dbl>,
    ## #   compactness_se <dbl>, concavity_se <dbl>, concave_points_se <dbl>,
    ## #   symmetry_se <dbl>, fractal_dimension_se <dbl>, radius_worst <dbl>,
    ## #   texture_worst <dbl>, perimeter_worst <dbl>, area_worst <dbl>, …

After (untidy):

``` r
cancer_sample_untidy <- cancer_sample %>% 
  pivot_longer(cols      = c(-ID, -diagnosis), 
               names_to  = c("measurement", ".value"),
               names_pattern = "(.*)_([^.]+)")
cancer_sample_untidy
```

    ## # A tibble: 5,690 × 6
    ##        ID diagnosis measurement            mean        se    worst
    ##     <dbl> <chr>     <chr>                 <dbl>     <dbl>    <dbl>
    ##  1 842302 M         radius              18.0      1.10      25.4  
    ##  2 842302 M         texture             10.4      0.905     17.3  
    ##  3 842302 M         perimeter          123.       8.59     185.   
    ##  4 842302 M         area              1001      153.      2019    
    ##  5 842302 M         smoothness           0.118    0.00640    0.162
    ##  6 842302 M         compactness          0.278    0.0490     0.666
    ##  7 842302 M         concavity            0.300    0.0537     0.712
    ##  8 842302 M         concave_points       0.147    0.0159     0.265
    ##  9 842302 M         symmetry             0.242    0.0300     0.460
    ## 10 842302 M         fractal_dimension    0.0787   0.00619    0.119
    ## # … with 5,680 more rows

Back to Before (tidy):

``` r
cancer_sample_untidy %>%
  pivot_wider(id_cols = c(-measurement, -mean, -se, -worst),
              names_from = measurement,
              names_glue = "{measurement}_{.value}",
              values_from = c(mean, se, worst))
```

    ## # A tibble: 569 × 32
    ##          ID diagnosis radius_mean texture_mean perimeter_mean area_mean
    ##       <dbl> <chr>           <dbl>        <dbl>          <dbl>     <dbl>
    ##  1   842302 M                18.0         10.4          123.      1001 
    ##  2   842517 M                20.6         17.8          133.      1326 
    ##  3 84300903 M                19.7         21.2          130       1203 
    ##  4 84348301 M                11.4         20.4           77.6      386.
    ##  5 84358402 M                20.3         14.3          135.      1297 
    ##  6   843786 M                12.4         15.7           82.6      477.
    ##  7   844359 M                18.2         20.0          120.      1040 
    ##  8 84458202 M                13.7         20.8           90.2      578.
    ##  9   844981 M                13           21.8           87.5      520.
    ## 10 84501001 M                12.5         24.0           84.0      476.
    ## # … with 559 more rows, and 26 more variables: smoothness_mean <dbl>,
    ## #   compactness_mean <dbl>, concavity_mean <dbl>, concave_points_mean <dbl>,
    ## #   symmetry_mean <dbl>, fractal_dimension_mean <dbl>, radius_se <dbl>,
    ## #   texture_se <dbl>, perimeter_se <dbl>, area_se <dbl>, smoothness_se <dbl>,
    ## #   compactness_se <dbl>, concavity_se <dbl>, concave_points_se <dbl>,
    ## #   symmetry_se <dbl>, fractal_dimension_se <dbl>, radius_worst <dbl>,
    ## #   texture_worst <dbl>, perimeter_worst <dbl>, area_worst <dbl>, …
…
1.  Dropping irrelvant columns. We will drop the `ID` and `symmetry_se`
    columns. The `ID` column does not have anything to do with the
    characteristics of the tumor! Also, by checking the correlation plot
    drawn for question 4, we can see that the `symmetry_se` column has a
    really low relation with `diagnosis`.

``` r
cancer_sample_final1 <- (select(cancer_sample, -c(ID, symmetry_se)))
cancer_sample_final1
```

    ## # A tibble: 569 × 30
    ##    diagnosis radius_mean texture_mean perimeter_mean area_mean smoothness_mean
    ##    <chr>           <dbl>        <dbl>          <dbl>     <dbl>           <dbl>
    ##  1 M                18.0         10.4          123.      1001           0.118 
    ##  2 M                20.6         17.8          133.      1326           0.0847
    ##  3 M                19.7         21.2          130       1203           0.110 
    ##  4 M                11.4         20.4           77.6      386.          0.142 
    ##  5 M                20.3         14.3          135.      1297           0.100 
    ##  6 M                12.4         15.7           82.6      477.          0.128 
    ##  7 M                18.2         20.0          120.      1040           0.0946
    ##  8 M                13.7         20.8           90.2      578.          0.119 
    ##  9 M                13           21.8           87.5      520.          0.127 
    ## 10 M                12.5         24.0           84.0      476.          0.119 
    ## # … with 559 more rows, and 24 more variables: compactness_mean <dbl>,
    ## #   concavity_mean <dbl>, concave_points_mean <dbl>, symmetry_mean <dbl>,
    ## #   fractal_dimension_mean <dbl>, radius_se <dbl>, texture_se <dbl>,
    ## #   perimeter_se <dbl>, area_se <dbl>, smoothness_se <dbl>,
    ## #   compactness_se <dbl>, concavity_se <dbl>, concave_points_se <dbl>,
    ## #   fractal_dimension_se <dbl>, radius_worst <dbl>, texture_worst <dbl>,
    ## #   perimeter_worst <dbl>, area_worst <dbl>, smoothness_worst <dbl>, …
…
-   Removing Missing Values In this dataset, there are no missing
    values. However, the code in implemented here for future
    modifications that might happen to the data.

``` r
cancer_sample_final2 <- na.omit(cancer_sample_final1) 
cancer_sample_final2
```

    ## # A tibble: 569 × 30
    ##    diagnosis radius_mean texture_mean perimeter_mean area_mean smoothness_mean
    ##    <chr>           <dbl>        <dbl>          <dbl>     <dbl>           <dbl>
    ##  1 M                18.0         10.4          123.      1001           0.118 
    ##  2 M                20.6         17.8          133.      1326           0.0847
    ##  3 M                19.7         21.2          130       1203           0.110 
    ##  4 M                11.4         20.4           77.6      386.          0.142 
    ##  5 M                20.3         14.3          135.      1297           0.100 
    ##  6 M                12.4         15.7           82.6      477.          0.128 
    ##  7 M                18.2         20.0          120.      1040           0.0946
    ##  8 M                13.7         20.8           90.2      578.          0.119 
    ##  9 M                13           21.8           87.5      520.          0.127 
    ## 10 M                12.5         24.0           84.0      476.          0.119 
    ## # … with 559 more rows, and 24 more variables: compactness_mean <dbl>,
    ## #   concavity_mean <dbl>, concave_points_mean <dbl>, symmetry_mean <dbl>,
    ## #   fractal_dimension_mean <dbl>, radius_se <dbl>, texture_se <dbl>,
    ## #   perimeter_se <dbl>, area_se <dbl>, smoothness_se <dbl>,
    ## #   compactness_se <dbl>, concavity_se <dbl>, concave_points_se <dbl>,
    ## #   fractal_dimension_se <dbl>, radius_worst <dbl>, texture_worst <dbl>,
    ## #   perimeter_worst <dbl>, area_worst <dbl>, smoothness_worst <dbl>, …

3.  Normalize the Columns Continuing on, we would like to have the
    numeric columns normalized. Transforming each column to have values
    between 0 and 1 will be helpful for comparing them statistically.
    Different scales will make models give very different weights to the
    features.

``` r
cancer_sample_final3 <- cancer_sample_final1 %>% mutate_at(2:30, funs((.-min(.))/max(.-min(.))))
cancer_sample_final3
```

    ## # A tibble: 569 × 30
    ##    diagnosis radius_mean texture_mean perimeter_mean area_mean smoothness_mean
    ##    <chr>           <dbl>        <dbl>          <dbl>     <dbl>           <dbl>
    ##  1 M               0.521       0.0227          0.546     0.364           0.594
    ##  2 M               0.643       0.273           0.616     0.502           0.290
    ##  3 M               0.601       0.390           0.596     0.449           0.514
    ##  4 M               0.210       0.361           0.234     0.103           0.811
    ##  5 M               0.630       0.157           0.631     0.489           0.430
    ##  6 M               0.259       0.203           0.268     0.142           0.679
    ##  7 M               0.533       0.347           0.524     0.380           0.379
    ##  8 M               0.318       0.376           0.321     0.184           0.598
    ##  9 M               0.285       0.410           0.302     0.160           0.674
    ## 10 M               0.259       0.485           0.278     0.141           0.596
    ## # … with 559 more rows, and 24 more variables: compactness_mean <dbl>,
    ## #   concavity_mean <dbl>, concave_points_mean <dbl>, symmetry_mean <dbl>,
    ## #   fractal_dimension_mean <dbl>, radius_se <dbl>, texture_se <dbl>,
    ## #   perimeter_se <dbl>, area_se <dbl>, smoothness_se <dbl>,
    ## #   compactness_se <dbl>, concavity_se <dbl>, concave_points_se <dbl>,
    ## #   fractal_dimension_se <dbl>, radius_worst <dbl>, texture_worst <dbl>,
    ## #   perimeter_worst <dbl>, area_worst <dbl>, smoothness_worst <dbl>, …

4.  Limit the number of decimals for all features. We apply rounding to
    the numeric columns, to bring consistency to our dataset.

``` r
cancer_sample_final4 <- dplyr::mutate(cancer_sample_final3, dplyr::across(where(is.numeric), round, 6))
cancer_sample_final4
```

    ## # A tibble: 569 × 30
    ##    diagnosis radius_mean texture_mean perimeter_mean area_mean smoothness_mean
    ##    <chr>           <dbl>        <dbl>          <dbl>     <dbl>           <dbl>
    ##  1 M               0.521       0.0227          0.546     0.364           0.594
    ##  2 M               0.643       0.273           0.616     0.502           0.290
    ##  3 M               0.601       0.390           0.596     0.449           0.514
    ##  4 M               0.210       0.361           0.234     0.103           0.811
    ##  5 M               0.630       0.157           0.631     0.489           0.430
    ##  6 M               0.259       0.203           0.268     0.142           0.679
    ##  7 M               0.533       0.347           0.524     0.380           0.379
    ##  8 M               0.318       0.376           0.321     0.184           0.598
    ##  9 M               0.285       0.410           0.302     0.160           0.674
    ## 10 M               0.259       0.485           0.278     0.141           0.596
    ## # … with 559 more rows, and 24 more variables: compactness_mean <dbl>,
    ## #   concavity_mean <dbl>, concave_points_mean <dbl>, symmetry_mean <dbl>,
    ## #   fractal_dimension_mean <dbl>, radius_se <dbl>, texture_se <dbl>,
    ## #   perimeter_se <dbl>, area_se <dbl>, smoothness_se <dbl>,
    ## #   compactness_se <dbl>, concavity_se <dbl>, concave_points_se <dbl>,
    ## #   fractal_dimension_se <dbl>, radius_worst <dbl>, texture_worst <dbl>,
    ## #   perimeter_worst <dbl>, area_worst <dbl>, smoothness_worst <dbl>, …

5.  Sorting the dataset based on the `diagnosis` column. This allows for
    easier human analysis of the data based on the two different
    `diagnosis` categories.

``` r
attach(cancer_sample_final4)
cancer_sample_final5 <- cancer_sample_final4[order(diagnosis),]
detach(cancer_sample_final4)

cancer_sample_final5
```

    ## # A tibble: 569 × 30
    ##    diagnosis radius_mean texture_mean perimeter_mean area_mean smoothness_mean
    ##    <chr>           <dbl>        <dbl>          <dbl>     <dbl>           <dbl>
    ##  1 B              0.310        0.157          0.302     0.179            0.408
    ##  2 B              0.289        0.203          0.289     0.160            0.495
    ##  3 B              0.119        0.0923         0.114     0.0553           0.449
    ##  4 B              0.286        0.295          0.268     0.161            0.336
    ##  5 B              0.0575       0.241          0.0547    0.0248           0.301
    ##  6 B              0.240        0.166          0.237     0.130            0.456
    ##  7 B              0.308        0.426          0.298     0.177            0.315
    ##  8 B              0.226        0.402          0.214     0.121            0.305
    ##  9 B              0.315        0.224          0.300     0.182            0.219
    ## 10 B              0.235        0.288          0.221     0.125            0.271
    ## # … with 559 more rows, and 24 more variables: compactness_mean <dbl>,
    ## #   concavity_mean <dbl>, concave_points_mean <dbl>, symmetry_mean <dbl>,
    ## #   fractal_dimension_mean <dbl>, radius_se <dbl>, texture_se <dbl>,
    ## #   perimeter_se <dbl>, area_se <dbl>, smoothness_se <dbl>,
    ## #   compactness_se <dbl>, concavity_se <dbl>, concave_points_se <dbl>,
    ## #   fractal_dimension_se <dbl>, radius_worst <dbl>, texture_worst <dbl>,
    ## #   perimeter_worst <dbl>, area_worst <dbl>, smoothness_worst <dbl>, …
