…
## 1.2 Dataset Exploration

In the following parts, the four chosen datasets will be explored. More
specifically, the `dplyr` package will be used to help us find out at
least 3 attributes about each dataset.

### Dataset 1

``` r
cancer_sample
```

    ## # A tibble: 569 × 32
    ##          ID diagnosis radius_mean texture_mean perimeter_mean area_mean
    ##       <dbl> <chr>           <dbl>        <dbl>          <dbl>     <dbl>
    ##  1   842302 M                18.0         10.4          123.      1001 
    ##  2   842517 M                20.6         17.8          133.      1326 
    ##  3 84300903 M                19.7         21.2          130       1203 
    ##  4 84348301 M                11.4         20.4           77.6      386.
    ##  5 84358402 M                20.3         14.3          135.      1297 
    ##  6   843786 M                12.4         15.7           82.6      477.
    ##  7   844359 M                18.2         20.0          120.      1040 
    ##  8 84458202 M                13.7         20.8           90.2      578.
    ##  9   844981 M                13           21.8           87.5      520.
    ## 10 84501001 M                12.5         24.0           84.0      476.
    ## # … with 559 more rows, and 26 more variables: smoothness_mean <dbl>,
    ## #   compactness_mean <dbl>, concavity_mean <dbl>, concave_points_mean <dbl>,
    ## #   symmetry_mean <dbl>, fractal_dimension_mean <dbl>, radius_se <dbl>,
    ## #   texture_se <dbl>, perimeter_se <dbl>, area_se <dbl>, smoothness_se <dbl>,
    ## #   compactness_se <dbl>, concavity_se <dbl>, concave_points_se <dbl>,
    ## #   symmetry_se <dbl>, fractal_dimension_se <dbl>, radius_worst <dbl>,
    ## #   texture_worst <dbl>, perimeter_worst <dbl>, area_worst <dbl>, …
…
    ## # A tibble: 2 × 2
    ##   diagnosis `n()`
    ##   <chr>     <int>
    ## 1 B           357
    ## 2 M           212

### Dataset 2

``` r
steam_games
```

    ## # A tibble: 40,833 × 21
    ##       id url    types name  desc_snippet recent_reviews all_reviews release_date
    ##    <dbl> <chr>  <chr> <chr> <chr>        <chr>          <chr>       <chr>       
    ##  1     1 https… app   DOOM  Now include… Very Positive… Very Posit… May 12, 2016
    ##  2     2 https… app   PLAY… PLAYERUNKNO… Mixed,(6,214)… Mixed,(836… Dec 21, 2017
    ##  3     3 https… app   BATT… Take comman… Mixed,(166),-… Mostly Pos… Apr 24, 2018
    ##  4     4 https… app   DayZ  The post-so… Mixed,(932),-… Mixed,(167… Dec 13, 2018
    ##  5     5 https… app   EVE … EVE Online … Mixed,(287),-… Mostly Pos… May 6, 2003 
    ##  6     6 https… bund… Gran… Grand Theft… NaN            NaN         NaN         
    ##  7     7 https… app   Devi… The ultimat… Very Positive… Very Posit… Mar 7, 2019 
    ##  8     8 https… app   Huma… Human: Fall… Very Positive… Very Posit… Jul 22, 2016
    ##  9     9 https… app   They… They Are Bi… Very Positive… Very Posit… Dec 12, 2017
    ## 10    10 https… app   Warh… In a world … <NA>           Mixed,(904… May 31, 2019
    ## # … with 40,823 more rows, and 13 more variables: developer <chr>,
    ## #   publisher <chr>, popular_tags <chr>, game_details <chr>, languages <chr>,
    ## #   achievements <dbl>, genre <chr>, game_description <chr>,
    ## #   mature_content <chr>, minimum_requirements <chr>,
    ## #   recommended_requirements <chr>, original_price <dbl>, discount_price <dbl>
…
    ## # A tibble: 4 × 2
    ##   types  `n()`
    ##   <chr>  <int>
    ## 1 app    38021
    ## 2 bundle  2572
    ## 3 sub      238
    ## 4 <NA>       2

### Dataset 3

``` r
vancouver_trees
```

    ## # A tibble: 146,611 × 20
    ##    tree_id civic_number std_street    genus_name species_name cultivar_name  
    ##      <dbl>        <dbl> <chr>         <chr>      <chr>        <chr>          
    ##  1  149556          494 W 58TH AV     ULMUS      AMERICANA    BRANDON        
    ##  2  149563          450 W 58TH AV     ZELKOVA    SERRATA      <NA>           
    ##  3  149579         4994 WINDSOR ST    STYRAX     JAPONICA     <NA>           
    ##  4  149590          858 E 39TH AV     FRAXINUS   AMERICANA    AUTUMN APPLAUSE
    ##  5  149604         5032 WINDSOR ST    ACER       CAMPESTRE    <NA>           
    ##  6  149616          585 W 61ST AV     PYRUS      CALLERYANA   CHANTICLEER    
    ##  7  149617         4909 SHERBROOKE ST ACER       PLATANOIDES  COLUMNARE      
    ##  8  149618         4925 SHERBROOKE ST ACER       PLATANOIDES  COLUMNARE      
    ##  9  149619         4969 SHERBROOKE ST ACER       PLATANOIDES  COLUMNARE      
    ## 10  149625          720 E 39TH AV     FRAXINUS   AMERICANA    AUTUMN APPLAUSE
    ## # … with 146,601 more rows, and 14 more variables: common_name <chr>,
    ## #   assigned <chr>, root_barrier <chr>, plant_area <chr>,
    ## #   on_street_block <dbl>, on_street <chr>, neighbourhood_name <chr>,
    ## #   street_side_name <chr>, height_range_id <dbl>, diameter <dbl>, curb <chr>,
    ## #   date_planted <date>, longitude <dbl>, latitude <dbl>
…
### Dataset 4

``` r
apt_buildings
```

    ## # A tibble: 3,455 × 37
    ##       id air_conditioning amenities    balconies barrier_free_acc… bike_parking 
    ##    <dbl> <chr>            <chr>        <chr>     <chr>             <chr>        
    ##  1 10359 NONE             Outdoor rec… YES       YES               0 indoor par…
    ##  2 10360 NONE             Outdoor pool YES       NO                0 indoor par…
    ##  3 10361 NONE             <NA>         YES       NO                Not Available
    ##  4 10362 NONE             <NA>         YES       YES               Not Available
    ##  5 10363 NONE             <NA>         NO        NO                12 indoor pa…
    ##  6 10364 NONE             <NA>         NO        NO                Not Available
    ##  7 10365 NONE             <NA>         NO        YES               Not Available
    ##  8 10366 CENTRAL AIR      Indoor pool… YES       NO                Not Available
    ##  9 10367 NONE             <NA>         YES       YES               0 indoor par…
    ## 10 10368 NONE             Indoor recr… YES       YES               Not Available
    ## # … with 3,445 more rows, and 31 more variables: exterior_fire_escape <chr>,
    ## #   fire_alarm <chr>, garbage_chutes <chr>, heating_type <chr>, intercom <chr>,
    ## #   laundry_room <chr>, locker_or_storage_room <chr>, no_of_elevators <dbl>,
    ## #   parking_type <chr>, pets_allowed <chr>, prop_management_company_name <chr>,
    ## #   property_type <chr>, rsn <dbl>, separate_gas_meters <chr>,
    ## #   separate_hydro_meters <chr>, separate_water_meters <chr>,
    ## #   site_address <chr>, sprinkler_system <chr>, visitor_parking <chr>, …
…
